Encode
…
Plausibility check: OK
Plausibility check: OK
Plausibility check: OK
Plausibility check: OK
Plausibility check: OK
Plausibility check: OK
Plausibility check: OK
Plausibility check: OK
Plausibility check: OK
Plausibility check: OK
Plausibility check: OK
Plausibility check: OK
Plausibility check: OK

# A tibble: 89 × 147
   recv_time_utc       start_time_utc      hex_data   time_unix adc_temp n1.ntc1
   <dttm>              <dttm>              <chr>          <dbl>    <int>   <int>
 1 2026-01-18 14:45:08 2026-01-18 14:44:55 696b9f8a3…    1.77e9  3996954 1889531
 2 2026-01-18 16:45:15 2026-01-18 16:45:03 696bbbaa3…    1.77e9  4008610 1844821
 3 2026-01-18 18:46:12 2026-01-18 18:46:02 696bd7ca3…    1.77e9  4003125 1852397
 4 2026-01-19 09:07:13 2026-01-19 09:07:01 696ca1d23…    1.77e9  3594873 1961143
 5 2026-01-19 21:07:06 2026-01-19 21:06:54 696d4a923…    1.77e9  3592220 2129290
 6 2026-01-20 09:07:07 2026-01-20 09:06:59 696df3533…    1.77e9  3591702 2111516
 7 2026-01-20 21:07:07 2026-01-20 21:07:01 696e9c123…    1.77e9  3591577 2267324
 8 2026-01-21 09:07:07 2026-01-21 09:07:02 696f44d23…    1.77e9  3591318 2289560
 9 2026-01-21 21:07:07 2026-01-21 21:06:58 696fed923…    1.77e9  3591310 2306979
10 2026-01-22 09:07:11 2026-01-22 09:06:59 697096523…    1.77e9  3591388 2258289
# ℹ 79 more rows
# ℹ 141 more variables: n1.ntc2 <int>, n1.gnd <int>, n1.pressure <int>,
#   n2.ntc1 <int>, n2.ntc2 <int>, n2.gnd <int>, n2.pressure <int>,
#   n3.ntc1 <int>, n3.ntc2 <int>, n3.gnd <int>, n3.pressure <int>,
#   n4.ntc1 <int>, n4.ntc2 <int>, n4.gnd <int>, n4.pressure <int>,
#   n5.ntc1 <int>, n5.ntc2 <int>, n5.gnd <int>, n5.pressure <int>,
#   n6.ntc1 <int>, n6.ntc2 <int>, n6.gnd <int>, n6.pressure <int>, …

decoded_tbl

# A tibble: 89 × 146
   recv_time_utc       start_time_utc      hex_data   time_unix adc_temp n1.ntc1
   <dttm>              <dttm>              <chr>          <dbl>    <int>   <int>
 1 2026-01-18 14:45:08 2026-01-18 14:44:55 696b9f8a3…    1.77e9  3996954 1889531
 2 2026-01-18 16:45:15 2026-01-18 16:45:03 696bbbaa3…    1.77e9  4008610 1844821
 3 2026-01-18 18:46:12 2026-01-18 18:46:02 696bd7ca3…    1.77e9  4003125 1852397
 4 2026-01-19 09:07:13 2026-01-19 09:07:01 696ca1d23…    1.77e9  3594873 1961143
 5 2026-01-19 21:07:06 2026-01-19 21:06:54 696d4a923…    1.77e9  3592220 2129290
 6 2026-01-20 09:07:07 2026-01-20 09:06:59 696df3533…    1.77e9  3591702 2111516
 7 2026-01-20 21:07:07 2026-01-20 21:07:01 696e9c123…    1.77e9  3591577 2267324
 8 2026-01-21 09:07:07 2026-01-21 09:07:02 696f44d23…    1.77e9  3591318 2289560
 9 2026-01-21 21:07:07 2026-01-21 21:06:58 696fed923…    1.77e9  3591310 2306979
10 2026-01-22 09:07:11 2026-01-22 09:06:59 697096523…    1.77e9  3591388 2258289
# ℹ 79 more rows
# ℹ 140 more variables: n1.ntc2 <int>, n1.gnd <int>, n1.pressure <int>,
#   n2.ntc1 <int>, n2.ntc2 <int>, n2.gnd <int>, n2.pressure <int>,
#   n3.ntc1 <int>, n3.ntc2 <int>, n3.gnd <int>, n3.pressure <int>,
#   n4.ntc1 <int>, n4.ntc2 <int>, n4.gnd <int>, n4.pressure <int>,
#   n5.ntc1 <int>, n5.ntc2 <int>, n5.gnd <int>, n5.pressure <int>,
#   n6.ntc1 <int>, n6.ntc2 <int>, n6.gnd <int>, n6.pressure <int>, …
…
decoded_l2

# A tibble: 89 × 145
   recv_time_utc       start_time_utc      time_utc            battery_mv
   <dttm>              <dttm>              <dttm>                   <dbl>
 1 2026-01-18 14:45:08 2026-01-18 14:44:55 2026-01-17 14:41:14       6828
 2 2026-01-18 16:45:15 2026-01-18 16:45:03 2026-01-17 16:41:14       6819
 3 2026-01-18 18:46:12 2026-01-18 18:46:02 2026-01-17 18:41:14       6828
 4 2026-01-19 09:07:13 2026-01-19 09:07:01 2026-01-18 09:03:14       6724
 5 2026-01-19 21:07:06 2026-01-19 21:06:54 2026-01-18 21:03:14       6706
 6 2026-01-20 09:07:07 2026-01-20 09:06:59 2026-01-19 09:03:15       6697
 7 2026-01-20 21:07:07 2026-01-20 21:07:01 2026-01-19 21:03:14       6689
 8 2026-01-21 09:07:07 2026-01-21 09:07:02 2026-01-20 09:03:14       6671
 9 2026-01-21 21:07:07 2026-01-21 21:06:58 2026-01-20 21:03:14       6680
10 2026-01-22 09:07:11 2026-01-22 09:06:59 2026-01-21 09:03:14       6680
# ℹ 79 more rows
# ℹ 141 more variables: adc_temp_C <dbl>, n1.ntc1_temp_C <dbl>,
#   n1.ntc2_temp_C <dbl>, n2.ntc1_temp_C <dbl>, n2.ntc2_temp_C <dbl>,
#   n3.ntc1_temp_C <dbl>, n3.ntc2_temp_C <dbl>, n4.ntc1_temp_C <dbl>,
#   n4.ntc2_temp_C <dbl>, n5.ntc1_temp_C <dbl>, n5.ntc2_temp_C <dbl>,
#   n6.ntc1_temp_C <dbl>, n6.ntc2_temp_C <dbl>, n7.ntc1_temp_C <dbl>,
#   n7.ntc2_temp_C <dbl>, n8.ntc1_temp_C <dbl>, n8.ntc2_temp_C <dbl>, …
…
